[
    {
        "entities": [
            {
                "value": "Hello",
                "entity": "Salutations"
            }
        ],
        "chatbotResponses": [],
        "text": "Hello bla bla bla",
        "confidence": 1,
        "intent": {
            "allEntities": [
                "Greeting",
                "Salutation"
            ],
            "name": "intent1",
            "shortLabel": "intent1",
            "description": "description de intent1",
            "domain": {
                "name": "domainJson",
                "shortLabel": "DomJson",
                "description": "description domain json"
            },
            "action": {
                "actionName": "action1",
                "description": "action1 description"
            }
        }
    },
    {
        "entities": [
            {
                "value": "Hello",
                "entity": "Salutations"
            }
        ],
        "chatbotResponses": [],
        "text": "un texte bla bla bla",
        "confidence": 1,
        "intent": {
            "allEntities": [
                "Texte"
            ],
            "name": "intent2",
            "shortLabel": "intent2",
            "description": "description de intent2",
            "domain": {
                "name": "domainJson2",
                "shortLabel": "DomJson2",
                "description": "description domain json2"
            },
            "action": {
                "actionName": "action2",
                "description": "action2 description"
            }
        }
    }
]